// Jest Snapshot v1, https://goo.gl/fbAQLP

exports[`App.tsx testing (<App />) App renders correctly (snapshot) 1`] = `ReactWrapper {}`;

exports[`App.tsx testing (<App />) App renders correctly when login = true (snapshot) 1`] = `
<div>
  <div
    className="makeStyles-root-1"
  >
    <header
      className="MuiPaper-root MuiAppBar-root MuiAppBar-positionStatic MuiAppBar-colorPrimary makeStyles-appbar-2 MuiPaper-elevation4"
    >
      <div
        className="MuiToolbar-root MuiToolbar-regular MuiToolbar-gutters"
      >
        <h6
          className="MuiTypography-root makeStyles-title-4 MuiTypography-h6"
          onClick={[Function]}
        >
          Table containing data for cities around the world!
        </h6>
        <button
          className="MuiButtonBase-root MuiButton-root MuiButton-text MuiButton-colorInherit"
          disabled={false}
          onBlur={[Function]}
          onClick={[Function]}
          onDragLeave={[Function]}
          onFocus={[Function]}
          onKeyDown={[Function]}
          onKeyUp={[Function]}
          onMouseDown={[Function]}
          onMouseLeave={[Function]}
          onMouseUp={[Function]}
          onTouchEnd={[Function]}
          onTouchMove={[Function]}
          onTouchStart={[Function]}
          tabIndex={0}
          type="button"
        >
          <span
            className="MuiButton-label"
          >
            Login / Register
          </span>
        </button>
      </div>
    </header>
  </div>
  <div
    className="div-container"
  >
    <div
      id="form-container"
    >
      <h1>
        <strong>
          Login
        </strong>
      </h1>
      <form
        onSubmit={[Function]}
      >
        <label>
          Username * 
        </label>
        <input
          id="usernameinput"
          name="username"
          onBlur={[Function]}
          onChange={[Function]}
          placeholder="Username"
          required={true}
          type="text"
          value=""
        />
        <label>
          Password * 
        </label>
        <input
          id="passwordinput"
          name="password"
          onBlur={[Function]}
          onChange={[Function]}
          placeholder="Password"
          required={true}
          type="password"
          value=""
        />
        <p
          id="register-login-feedback"
          onClick={[Function]}
        >
          Click here to 
          register
        </p>
        <button
          id="reg-log-btn"
          type="submit"
        >
          Log in
        </button>
      </form>
    </div>
    <p
      id="register-req"
    >
      
    </p>
  </div>
</div>
`;
