// Jest Snapshot v1, https://goo.gl/fbAQLP

exports[`ProfileView.tsx testing (<ProfileView />) Test: ProfileView renders correctly (snapshot) 1`] = `
<div
  id="profile-view-container"
>
  <h1>
    <strong>
      View your profile!
    </strong>
  </h1>
  <div
    className="profile-info"
  >
    <div>
      <p>
        <strong>
          Username:
        </strong>
         
        Anonym frosk
      </p>
      <p>
        <strong>
          Age:
        </strong>
         
        18
      </p>
      <p>
        <strong>
          City:
        </strong>
         
        Wondertown
      </p>
      <p>
        <strong>
          Country:
        </strong>
         
        Wonderland
      </p>
      <p>
        <strong>
          Your favourite city is:
        </strong>
         
        Minas Tirith
      </p>
      <p>
        <strong>
          Your favourite country is:
        </strong>
         
        Gondor
      </p>
      <button
        id="logout-btn"
        onClick={[Function]}
      >
        Log out
      </button>
    </div>
  </div>
</div>
`;
